{
    "format": "Sub Rip",
    "opt": "subrip",
    "subs":
    [

        {
            "__Subtitle__": true,
            "start": {"__FrameTime__": true, "ms": 0},
            "end": {"__FrameTime__": true, "ms": 850},
            "text": "This is first subtitle."
        },

        {
            "__Subtitle__": true,
            "start": {"__FrameTime__": true, "ms": 1000},
            "end": {"__FrameTime__": true, "ms": 3549},
            "text": "This is a simple subtitle<br/>which has more than one line."
        }
    ]
}
